<?xml version="1.0" encoding="UTF-8" standalone="no"?>
<!-- Created with Inkscape (http://www.inkscape.org/) -->

<svg
   id="svg2"
   sodipodi:docname="court_faded.svg"
   viewBox="0 0 590.79 639.22"
   version="1.1"
   inkscape:version="1.1.1 (3bf5ae0d25, 2021-09-20)"
   xmlns:inkscape="http://www.inkscape.org/namespaces/inkscape"
   xmlns:sodipodi="http://sodipodi.sourceforge.net/DTD/sodipodi-0.dtd"
   xmlns:xlink="http://www.w3.org/1999/xlink"
   xmlns="http://www.w3.org/2000/svg"
   xmlns:svg="http://www.w3.org/2000/svg"
   xmlns:rdf="http://www.w3.org/1999/02/22-rdf-syntax-ns#"
   xmlns:cc="http://creativecommons.org/ns#"
   xmlns:dc="http://purl.org/dc/elements/1.1/">
  <defs
     id="defs6">
    <linearGradient
       id="linearGradient3760">
      <stop
         id="stop3762"
         style="stop-color:#ff0000"
         offset="0" />
      <stop
         id="stop3764"
         style="stop-color:#000000"
         offset="1" />
    </linearGradient>
    <filter
       id="filter3798"
       height="1.915969"
       width="1.8597254"
       color-interpolation-filters="sRGB"
       y="-0.45798452"
       x="-0.4298627"
       inkscape:collect="always">
      <feGaussianBlur
         id="feGaussianBlur3800"
         stdDeviation="4.2729117"
         inkscape:collect="always" />
    </filter>
    <linearGradient
       id="linearGradient3814"
       y2="92.04"
       xlink:href="#linearGradient3760"
       gradientUnits="userSpaceOnUse"
       x2="253.63"
       y1="67.853"
       x1="253.85"
       inkscape:collect="always" />
    <linearGradient
       id="linearGradient3816"
       y2="71.18"
       xlink:href="#linearGradient3760"
       gradientUnits="userSpaceOnUse"
       x2="254.89"
       gradientTransform="matrix(1 0 0 1.0361 -.20927 -2.18)"
       y1="32.047"
       x1="254.89"
       inkscape:collect="always" />
    <linearGradient
       id="linearGradient4729"
       y2="-96.183"
       gradientUnits="userSpaceOnUse"
       x2="469.08"
       y1="-50.311"
       x1="469.08"
       inkscape:collect="always">
      <stop
         id="stop4072-2-2"
         style="stop-color:#000000"
         offset="0" />
      <stop
         id="stop4074-3-5"
         style="stop-color:#000000;stop-opacity:0"
         offset="1" />
    </linearGradient>
    <linearGradient
       id="linearGradient4731"
       y2="-76.669"
       gradientUnits="userSpaceOnUse"
       x2="471.74"
       y1="-84.66"
       x1="471.7"
       inkscape:collect="always">
      <stop
         id="stop4056-1-3"
         style="stop-color:#cccccc"
         offset="0" />
      <stop
         id="stop4058-1-3"
         style="stop-color:#cccccc;stop-opacity:0"
         offset="1" />
    </linearGradient>
    <linearGradient
       id="linearGradient4733"
       y2="-79.43"
       gradientUnits="userSpaceOnUse"
       x2="485.56"
       y1="-99.735"
       x1="485.9"
       inkscape:collect="always">
      <stop
         id="stop4064-7-3"
         style="stop-color:#ffe680"
         offset="0" />
      <stop
         id="stop4066-4-8"
         style="stop-color:#ffe680;stop-opacity:0"
         offset="1" />
    </linearGradient>
    <filter
       id="filter3798-7"
       width="1.8597254"
       y="-0.45798452"
       x="-0.4298627"
       height="1.915969"
       color-interpolation-filters="sRGB"
       inkscape:collect="always">
      <feGaussianBlur
         id="feGaussianBlur3800-4"
         stdDeviation="4.2729117"
         inkscape:collect="always" />
    </filter>
    <filter
       id="filter6025"
       height="1.3933455"
       width="1.1836923"
       color-interpolation-filters="sRGB"
       y="-0.19667277"
       x="-0.091846126"
       inkscape:collect="always">
      <feGaussianBlur
         id="feGaussianBlur6027"
         stdDeviation="8.9247651"
         inkscape:collect="always" />
    </filter>
    <filter
       id="filter6068"
       height="1.3872262"
       width="1.067377"
       color-interpolation-filters="sRGB"
       y="-0.19361308"
       x="-0.033688479"
       inkscape:collect="always">
      <feGaussianBlur
         id="feGaussianBlur6070"
         stdDeviation="8.3084212"
         inkscape:collect="always" />
    </filter>
    <linearGradient
       id="linearGradient7017"
       y2="-96.183"
       gradientUnits="userSpaceOnUse"
       x2="469.08"
       gradientTransform="matrix(-.068390 -3.4217 .72080 -.10252 -1324.1 1263.3)"
       y1="-50.311"
       x1="469.08"
       inkscape:collect="always">
      <stop
         id="stop4072-8-7-5-9"
         style="stop-color:#000000"
         offset="0" />
      <stop
         id="stop4074-6-8-0-0"
         style="stop-color:#000000;stop-opacity:0"
         offset="1" />
    </linearGradient>
    <linearGradient
       id="linearGradient7019"
       y2="-76.669"
       gradientUnits="userSpaceOnUse"
       x2="471.74"
       gradientTransform="matrix(-.068390 -3.4217 .72080 -.10252 -1324.1 1263.3)"
       y1="-84.66"
       x1="471.7"
       inkscape:collect="always">
      <stop
         id="stop4056-2-35-9-8"
         style="stop-color:#cccccc"
         offset="0" />
      <stop
         id="stop4058-8-9-3-5"
         style="stop-color:#cccccc;stop-opacity:0"
         offset="1" />
    </linearGradient>
    <linearGradient
       id="linearGradient7021"
       y2="-79.43"
       gradientUnits="userSpaceOnUse"
       x2="485.56"
       gradientTransform="matrix(-.068390 -3.4217 .72080 -.10252 -1324.1 1263.3)"
       y1="-99.735"
       x1="485.9"
       inkscape:collect="always">
      <stop
         id="stop4064-2-07-7-0"
         style="stop-color:#ffe680"
         offset="0" />
      <stop
         id="stop4066-48-63-9-8"
         style="stop-color:#ffe680;stop-opacity:0"
         offset="1" />
    </linearGradient>
    <filter
       id="filter7060"
       height="1.416031"
       width="1.6008399"
       color-interpolation-filters="sRGB"
       y="-0.2080155"
       x="-0.30041996"
       inkscape:collect="always">
      <feGaussianBlur
         id="feGaussianBlur7062"
         stdDeviation="29.967016"
         inkscape:collect="always" />
    </filter>
    <filter
       id="filter7060-4"
       width="1.7100908"
       y="-0.20025432"
       x="-0.35504541"
       height="1.4005086"
       color-interpolation-filters="sRGB"
       inkscape:collect="always">
      <feGaussianBlur
         id="feGaussianBlur7062-7"
         stdDeviation="29.967016"
         inkscape:collect="always" />
    </filter>
    <linearGradient
       id="linearGradient4885"
       y2="314.48"
       xlink:href="#linearGradient3760"
       gradientUnits="userSpaceOnUse"
       x2="-233.96"
       y1="314.48"
       x1="-399.45"
       inkscape:collect="always" />
  </defs>
  <sodipodi:namedview
     id="namedview4"
     fit-margin-left="0"
     inkscape:zoom="0.42237137"
     borderopacity="1"
     inkscape:current-layer="svg2"
     inkscape:cx="-486.53866"
     inkscape:cy="316.07256"
     inkscape:window-maximized="1"
     showgrid="false"
     fit-margin-right="0"
     bordercolor="#666666"
     inkscape:window-x="-9"
     guidetolerance="10"
     objecttolerance="10"
     inkscape:window-y="-9"
     fit-margin-bottom="0"
     inkscape:window-width="1920"
     inkscape:pageopacity="0"
     inkscape:pageshadow="2"
     pagecolor="#ffffff"
     gridtolerance="10"
     inkscape:window-height="991"
     showborder="true"
     fit-margin-top="0"
     inkscape:pagecheckerboard="0" />
  <g
     id="g4913"
     transform="translate(87.979 -135.33)"
     style="opacity:0.2">
    <g
       id="g4861"
       transform="matrix(.98245 0 0 1.1695 612.53 347.39)">
      <rect
         id="rect4801-2"
         style="fill-rule:evenodd;fill:#ff0000"
         height="103.8"
         width="13.393"
         y="101.34"
         x="-683.05" />
      <rect
         id="rect4801"
         style="fill-rule:evenodd;fill:#b50000"
         height="103.8"
         width="13.393"
         y="-61.047"
         x="-579.25" />
      <g
         id="g4856">
        <rect
           id="rect4801-4"
           style="fill-rule:evenodd;fill:#920000"
           height="103.8"
           width="13.393"
           y="108.04"
           x="-564.18" />
        <rect
           id="rect4801-5"
           style="fill-rule:evenodd;fill:#920000"
           height="103.8"
           width="13.393"
           y="-64.395"
           x="-473.78" />
        <path
           id="rect4835"
           d="m-564.18 108.25s-3.7993-1.4927-2.7051-3.6556c12.133-23.984 89.997-168.67 93.195-169.35 7.0231-1.5044 14.805-0.26336 21.546-0.19311 8.5214 0.0888 10.278 37.263 0 24.279-4.6392-5.8606-21.571 0.39345-21.571 0.39345l-77.19 148.53z"
           sodipodi:nodetypes="cssssccc"
           style="fill-rule:evenodd;fill:#920000"
           inkscape:connector-curvature="0" />
      </g>
      <g
         id="g4781"
         transform="translate(-48.55 -311.39)">
        <g
           id="g4547"
           style="fill:url(#linearGradient4885)"
           transform="matrix(1.5745 0 0 1.1838 -35.39 77.665)">
          <path
             id="rect4476"
             sodipodi:nodetypes="ccssc"
             style="fill-rule:evenodd;fill:url(#linearGradient4885)"
             inkscape:connector-curvature="0"
             d="m-310.68 219.3h10.882s-89.671 188.23-92.338 192.43c-1.945 3.0618-8.8576-1.8146-7.1227-5.0001 1.4524-2.6667 88.579-187.43 88.579-187.43z" />
          <path
             id="rect4476-1"
             sodipodi:nodetypes="ccssc"
             style="fill:url(#linearGradient4885);fill-rule:evenodd"
             inkscape:connector-curvature="0"
             d="m-244.13 219.88h10.174s-73.939 184.39-76.433 188.94c-1.8185 3.3142-10.105-1.5519-8.4826-5.0001 1.3579-2.8866 74.741-183.94 74.741-183.94z" />
          <path
             id="rect4476-7"
             sodipodi:nodetypes="sssss"
             style="fill:url(#linearGradient4885);fill-rule:evenodd"
             inkscape:connector-curvature="0"
             d="m-297.91 363.7c1.5018 0.0627 1.1846 9.9259 0.38161 10.026-1.9804 0.24718-79.019 4.4202-81.076 4.6438-1.4893 0.1618-1.3547-9.3376-0.0721-9.4163 1.257-0.0776 79.257-5.3167 80.767-5.2536z" />
          <path
             id="rect4476-7-4"
             sodipodi:nodetypes="sssss"
             style="fill:url(#linearGradient4885);fill-rule:evenodd"
             inkscape:connector-curvature="0"
             d="m-282.74 327.55c1.4866 0.0627 1.1726 9.9259 0.37774 10.026-1.9604 0.24718-78.22 4.4202-80.257 4.6438-1.4743 0.1618-1.341-9.3376-0.0714-9.4163 1.2443-0.0776 78.456-5.3167 79.95-5.2536z" />
          <path
             id="rect4476-7-0"
             sodipodi:nodetypes="sssss"
             style="fill:url(#linearGradient4885);fill-rule:evenodd"
             inkscape:connector-curvature="0"
             d="m-269.33 294.07c1.4563 0.0627 1.1487 9.9259 0.37003 10.026-1.9204 0.24718-76.623 4.4202-78.618 4.6438-1.4442 0.1618-1.3136-9.3376-0.0699-9.4163 1.2189-0.0776 76.854-5.3167 78.318-5.2536z" />
          <path
             id="rect4476-7-9"
             sodipodi:nodetypes="sssss"
             style="fill:url(#linearGradient4885);fill-rule:evenodd"
             inkscape:connector-curvature="0"
             d="m-255.85 257.24c1.3349 0.0627 1.0529 9.9259 0.33918 10.026-1.7602 0.24718-70.234 4.4202-72.063 4.6438-1.3238 0.1618-1.2041-9.3376-0.0641-9.4163 1.1173-0.0776 70.446-5.3167 71.788-5.2536z" />
        </g>
        <g
           id="g4547-1"
           style="fill:url(#linearGradient4885)"
           transform="matrix(1.5745 0 0 1.1838 -28.127 82.374)">
          <path
             id="rect4476-4"
             sodipodi:nodetypes="ccssc"
             style="fill:url(#linearGradient4885);fill-rule:evenodd"
             inkscape:connector-curvature="0"
             d="m-308.94 215.3h10.882s-87.649 187.23-90.316 191.43c-1.945 3.0618-12.617 3.1855-10.882 0 1.4524-2.6667 90.316-191.43 90.316-191.43z" />
          <path
             id="rect4476-1-2"
             sodipodi:nodetypes="ccssc"
             style="fill:url(#linearGradient4885);fill-rule:evenodd"
             inkscape:connector-curvature="0"
             d="m-242.94 215.99h10.174s-73.444 183.28-75.937 187.83c-1.8185 3.3142-11.796 3.4482-10.174 0 1.3579-2.8866 75.937-187.83 75.937-187.83z" />
          <path
             id="rect4476-7-3"
             sodipodi:nodetypes="sssss"
             style="fill:url(#linearGradient4885);fill-rule:evenodd"
             inkscape:connector-curvature="0"
             d="m-297.91 363.7c1.5018 0.0627 1.1846 9.9259 0.38161 10.026-1.9804 0.24718-79.019 4.4202-81.076 4.6438-1.4893 0.1618-1.3547-9.3376-0.0721-9.4163 1.257-0.0776 79.257-5.3167 80.767-5.2536z" />
          <path
             id="rect4476-7-4-2"
             sodipodi:nodetypes="sssss"
             style="fill:url(#linearGradient4885);fill-rule:evenodd"
             inkscape:connector-curvature="0"
             d="m-282.74 327.55c1.4866 0.0627 1.1726 9.9259 0.37774 10.026-1.9604 0.24718-78.22 4.4202-80.257 4.6438-1.4743 0.1618-1.341-9.3376-0.0714-9.4163 1.2443-0.0776 78.456-5.3167 79.95-5.2536z" />
          <path
             id="rect4476-7-0-2"
             sodipodi:nodetypes="sssss"
             style="fill:url(#linearGradient4885);fill-rule:evenodd"
             inkscape:connector-curvature="0"
             d="m-269.33 294.07c1.4563 0.0627 1.1487 9.9259 0.37003 10.026-1.9204 0.24718-76.623 4.4202-78.618 4.6438-1.4442 0.1618-1.3136-9.3376-0.0699-9.4163 1.2189-0.0776 76.854-5.3167 78.318-5.2536z" />
          <path
             id="rect4476-7-9-1"
             sodipodi:nodetypes="sssss"
             style="fill:url(#linearGradient4885);fill-rule:evenodd"
             inkscape:connector-curvature="0"
             d="m-255.85 257.24c1.3349 0.0627 1.0529 9.9259 0.33918 10.026-1.7602 0.24718-70.234 4.4202-72.063 4.6438-1.3238 0.1618-1.2041-9.3376-0.0641-9.4163 1.1173-0.0776 70.446-5.3167 71.788-5.2536z" />
        </g>
      </g>
      <path
         id="rect4835-9"
         sodipodi:nodetypes="sscsccs"
         style="fill-rule:evenodd;fill:#b50000"
         inkscape:connector-curvature="0"
         d="m-687.17 105.22c-8.7913 0.37447 101.96-158.44 107.71-166.29 5.5294-7.555 28.609-4.2822 28.609-4.2822s3.1693 14.918-0.48829 20.817c-5.7251 9.2333-14.934-5.9462-14.934-5.9462l-103.49 152.63s-11.242 2.816-17.414 3.0789z" />
    </g>
    <g
       id="g7321"
       transform="matrix(.25659 0 0 .29240 453.62 120.98)">
      <g
         id="g6072"
         transform="translate(-1707.2 65.607)">
        <path
           id="rect6003"
           d="m5.919 771.83 635.7-44.98 284.11 60.37-2.52 44.4-588.2 59.78-99.88-9.56-228.87-61.43z"
           sodipodi:nodetypes="cccccccc"
           style="fill-rule:evenodd;fill:#483737"
           inkscape:connector-curvature="0" />
        <path
           id="rect6006"
           d="m10.654 769.47 233.21 62.741v46.168l-233.21-62.741z"
           sodipodi:nodetypes="ccccc"
           style="opacity:0.93363;filter:url(#filter6025);fill-rule:evenodd;fill:#241c1c"
           inkscape:connector-curvature="0" />
        <path
           id="rect6029"
           d="m327.91 846.41 589.53-59.19 1.1838 42.617-591.9 60.373z"
           sodipodi:nodetypes="ccccc"
           style="filter:url(#filter6068);fill-rule:evenodd;fill:#241c1c"
           inkscape:connector-curvature="0" />
      </g>
      <g
         id="g6128">
        <g
           id="g3806"
           transform="translate(-1676.2 18.941)">
          <g
             id="g3769">
            <path
               id="rect2987"
               style="fill-rule:evenodd;fill:#ff0000"
               d="m212.14 80.451c41.059 1.1307 40.828 1.0668 85.31-1.2558 3.7664-0.19665 16.555 1718.7 16.328 1725.5-0.39192 11.769-79.8 12.955-79.883 2.0929-0.036-4.7284-26.689-1726.5-21.756-1726.4z"
               sodipodi:nodetypes="sssss"
               inkscape:connector-curvature="0"
               transform="matrix(1 0 .015973 .99987 0 0)" />
            <path
               id="rect3758"
               d="m211.31 70.436s29.298 1.6044 43.789 1.4693c15.202-0.14168 45.919-1.6786 45.919-1.6786l0.3139 6.9981s-0.51949 0.05996-1.4572 0.16497c-0.26356 0.02951-0.50467 0.562-0.83206 0.5983-0.30826 0.03418 0.022 1.1987-0.33919 1.2367-8.4352 0.88772-31.451 1.6354-43.71 1.8578-13.602 0.24678-40.808-0.64412-40.808-0.64412l-1.2542-0.91698-1.6221-0.62255z"
               sodipodi:nodetypes="csccsssscccc"
               style="fill-rule:evenodd;fill:url(#linearGradient3814)"
               inkscape:connector-curvature="0" />
          </g>
          <g
             id="g3802">
            <path
               id="path3773"
               d="m298.21 71.135s-18.242 1.3009-39.97 1.3009-44.783-1.9514-44.783-1.9514c0-12.334 12.174-40.301 41.016-40.111 33.028 0.21682 43.737 28.428 43.737 40.762z"
               sodipodi:nodetypes="sssss"
               style="fill-rule:evenodd;fill:url(#linearGradient3816)"
               inkscape:connector-curvature="0" />
            <path
               id="path3784"
               sodipodi:rx="11.928213"
               sodipodi:ry="11.19578"
               style="opacity:0.64602;filter:url(#filter3798);fill-rule:evenodd;fill:#ffffff"
               sodipodi:type="arc"
               d="m200.69 58.938c0 6.1833-5.3404 11.196-11.928 11.196-6.5878 0-11.928-5.0125-11.928-11.196 0-6.1833 5.3404-11.196 11.928-11.196 6.5878 0 11.928 5.0125 11.928 11.196z"
               transform="translate(56.293 -7.3243)"
               sodipodi:cy="58.938095"
               sodipodi:cx="188.75874" />
          </g>
        </g>
        <g
           id="g3926"
           transform="translate(-1684.5 62.741)">
          <path
             id="rect3818"
             sodipodi:nodetypes="scssscscsssssss"
             style="fill-rule:evenodd;fill:#483737"
             inkscape:connector-curvature="0"
             d="m228.94 845.77c2.2123-0.9867 6.5761-1.1348 6.5761-1.1348s1.7239 5.086 3.8721 5.4906c21.073 3.9693 29.956 2.9598 43.274 2.7798 12.985-0.17555 22.083-0.68399 32.34-3.8501 1.6367-0.50524 4.2792-4.8537 4.2792-4.8537s3.9475-0.94458 8.3291 1.0413c2.1931 0.99401 3.7123 4.2938 3.7123 4.2938s-0.0936 18.898 0.0867 29.672c0.0306 1.8273-7.1766 4.5162-11.381 5.5998-5.191 1.3378-27.696 2.4868-41.605 2.2878-14.657-0.20979-30.559-0.74133-43.894-2.6758-4.9494-0.71801-10.316-4.665-10.352-5.9082-0.0748-2.5797-0.10682-22.106-0.14161-29.172-0.01-2.0219 3.2611-2.8374 4.904-3.5701z" />
          <g
             id="g3147"
             style="fill:#000000">
            <path
               id="rect3021"
               d="m240.08 882.71 4.9758 0.5793-0.0242 2.3849-4.9758-0.5793z"
               sodipodi:nodetypes="ccccc"
               style="opacity:0.64602;fill-rule:evenodd;fill:#000000"
               inkscape:connector-curvature="0" />
            <path
               id="rect3023"
               d="m231.04 881.12 4.0616 1.04-0.037 2.3251-4.0616-1.04z"
               sodipodi:nodetypes="ccccc"
               style="opacity:0.64602;fill-rule:evenodd;fill:#000000"
               inkscape:connector-curvature="0" />
            <path
               id="rect3025"
               d="m225.06 877.5 1.9464 1.5389v2.3019l-1.9464-1.5389z"
               sodipodi:nodetypes="ccccc"
               style="opacity:0.64602;fill-rule:evenodd;fill:#000000"
               inkscape:connector-curvature="0" />
            <path
               id="rect3021-1"
               d="m257.03 883.77 6.2336 0.13539 0.0128 2.7918-6.2336-0.13539z"
               sodipodi:nodetypes="ccccc"
               style="opacity:0.64602;fill-rule:evenodd;fill:#000000"
               inkscape:connector-curvature="0" />
            <path
               id="rect3021-7"
               d="m271.17 883.99 6.6775 0.0984 0.0498 2.9768-6.6775-0.0984z"
               sodipodi:nodetypes="ccccc"
               style="opacity:0.64602;fill-rule:evenodd;fill:#000000"
               inkscape:connector-curvature="0" />
            <path
               id="rect3021-7-4"
               d="m285.04 883.64 6.5665 0.0244 0.0868 3.3097-6.6405 0.12356z"
               sodipodi:nodetypes="ccccc"
               style="opacity:0.64602;fill-rule:evenodd;fill:#000000"
               inkscape:connector-curvature="0" />
            <path
               id="rect3021-7-0"
               d="m297.62 883.38 6.6775-0.0866 0.0128 3.1248-6.6405 0.30853z"
               sodipodi:nodetypes="ccccc"
               style="opacity:0.64602;fill-rule:evenodd;fill:#000000"
               inkscape:connector-curvature="0" />
            <path
               id="rect3021-7-9"
               d="m311.9 882.87 5.8267-0.64147 0.0498 2.9768-5.8267 0.64147z"
               sodipodi:nodetypes="ccccc"
               style="opacity:0.64602;fill-rule:evenodd;fill:#000000"
               inkscape:connector-curvature="0" />
            <path
               id="rect3021-7-48"
               d="m323.44 880.83 3.57-1.3813 0.0498 2.9768-3.57 1.3813z"
               sodipodi:nodetypes="ccccc"
               style="opacity:0.64602;fill-rule:evenodd;fill:#000000"
               inkscape:connector-curvature="0" />
          </g>
          <g
             id="g3136"
             style="fill:#000000">
            <path
               id="rect3021-8"
               d="m240.44 855.7 4.9758 0.5793-0.0242 2.3849-4.9758-0.5793z"
               sodipodi:nodetypes="ccccc"
               style="opacity:0.64602;fill-rule:evenodd;fill:#000000"
               inkscape:connector-curvature="0" />
            <path
               id="rect3023-2"
               d="m231.39 854.12 4.0616 1.04-0.037 2.3251-4.0616-1.04z"
               sodipodi:nodetypes="ccccc"
               style="opacity:0.64602;fill-rule:evenodd;fill:#000000"
               inkscape:connector-curvature="0" />
            <path
               id="rect3025-4"
               d="m225.42 850.49 1.9464 1.5389v2.3019l-1.9464-1.5389z"
               sodipodi:nodetypes="ccccc"
               style="opacity:0.64602;fill-rule:evenodd;fill:#000000"
               inkscape:connector-curvature="0" />
            <path
               id="rect3021-1-5"
               d="m257.39 856.76 6.2336 0.13539 0.0128 2.7918-6.2336-0.13539z"
               sodipodi:nodetypes="ccccc"
               style="opacity:0.64602;fill-rule:evenodd;fill:#000000"
               inkscape:connector-curvature="0" />
            <path
               id="rect3021-7-5"
               d="m271.52 856.99 6.6775 0.0984 0.0498 2.9768-6.6775-0.0984z"
               sodipodi:nodetypes="ccccc"
               style="opacity:0.64602;fill-rule:evenodd;fill:#000000"
               inkscape:connector-curvature="0" />
            <path
               id="rect3021-7-4-1"
               d="m285.39 856.63 6.5665 0.0244 0.0868 3.3097-6.6405 0.12356z"
               sodipodi:nodetypes="ccccc"
               style="opacity:0.64602;fill-rule:evenodd;fill:#000000"
               inkscape:connector-curvature="0" />
            <path
               id="rect3021-7-0-7"
               d="m297.97 856.38 6.6775-0.0866 0.0128 3.1248-6.6405 0.30853z"
               sodipodi:nodetypes="ccccc"
               style="opacity:0.64602;fill-rule:evenodd;fill:#000000"
               inkscape:connector-curvature="0" />
            <path
               id="rect3021-7-9-1"
               d="m312.25 855.86 5.8267-0.64147 0.0498 2.9768-5.8267 0.64147z"
               sodipodi:nodetypes="ccccc"
               style="opacity:0.64602;fill-rule:evenodd;fill:#000000"
               inkscape:connector-curvature="0" />
            <path
               id="rect3021-7-48-1"
               d="m323.79 853.82 3.57-1.3813 0.0498 2.9768-3.57 1.3813z"
               sodipodi:nodetypes="ccccc"
               style="opacity:0.64602;fill-rule:evenodd;fill:#000000"
               inkscape:connector-curvature="0" />
          </g>
        </g>
        <g
           id="g3926-5"
           transform="translate(-1695.9 -614.58)">
          <path
             id="rect3818-2"
             sodipodi:nodetypes="scssscscsssssss"
             style="fill-rule:evenodd;fill:#6c5353"
             inkscape:connector-curvature="0"
             d="m228.94 845.77c2.2123-0.9867 6.5761-1.1348 6.5761-1.1348s1.7239 5.086 3.8721 5.4906c21.073 3.9693 29.956 2.9598 43.274 2.7798 12.985-0.17555 22.083-0.68399 32.34-3.8501 1.6367-0.50524 4.2792-4.8537 4.2792-4.8537s3.9475-0.94458 8.3291 1.0413c2.1931 0.99401 3.7123 4.2938 3.7123 4.2938s-0.0936 18.898 0.0867 29.672c0.0306 1.8273-7.1766 4.5162-11.381 5.5998-5.191 1.3378-27.696 2.4868-41.605 2.2878-14.657-0.20979-30.559-0.74133-43.894-2.6758-4.9494-0.71801-10.316-4.665-10.352-5.9082-0.0748-2.5797-0.10682-22.106-0.14161-29.172-0.01-2.0219 3.2611-2.8374 4.904-3.5701z" />
          <g
             id="g3147-7"
             style="fill:#000000">
            <path
               id="rect3021-6"
               d="m240.08 882.71 4.9758 0.5793-0.0242 2.3849-4.9758-0.5793z"
               sodipodi:nodetypes="ccccc"
               style="opacity:0.64602;fill-rule:evenodd;fill:#000000"
               inkscape:connector-curvature="0" />
            <path
               id="rect3023-1"
               d="m231.04 881.12 4.0616 1.04-0.037 2.3251-4.0616-1.04z"
               sodipodi:nodetypes="ccccc"
               style="opacity:0.64602;fill-rule:evenodd;fill:#000000"
               inkscape:connector-curvature="0" />
            <path
               id="rect3025-42"
               d="m225.06 877.5 1.9464 1.5389v2.3019l-1.9464-1.5389z"
               sodipodi:nodetypes="ccccc"
               style="opacity:0.64602;fill-rule:evenodd;fill:#000000"
               inkscape:connector-curvature="0" />
            <path
               id="rect3021-1-3"
               d="m257.03 883.77 6.2336 0.13539 0.0128 2.7918-6.2336-0.13539z"
               sodipodi:nodetypes="ccccc"
               style="opacity:0.64602;fill-rule:evenodd;fill:#000000"
               inkscape:connector-curvature="0" />
            <path
               id="rect3021-7-2"
               d="m271.17 883.99 6.6775 0.0984 0.0498 2.9768-6.6775-0.0984z"
               sodipodi:nodetypes="ccccc"
               style="opacity:0.64602;fill-rule:evenodd;fill:#000000"
               inkscape:connector-curvature="0" />
            <path
               id="rect3021-7-4-2"
               d="m285.04 883.64 6.5665 0.0244 0.0868 3.3097-6.6405 0.12356z"
               sodipodi:nodetypes="ccccc"
               style="opacity:0.64602;fill-rule:evenodd;fill:#000000"
               inkscape:connector-curvature="0" />
            <path
               id="rect3021-7-0-1"
               d="m297.62 883.38 6.6775-0.0866 0.0128 3.1248-6.6405 0.30853z"
               sodipodi:nodetypes="ccccc"
               style="opacity:0.64602;fill-rule:evenodd;fill:#000000"
               inkscape:connector-curvature="0" />
            <path
               id="rect3021-7-9-6"
               d="m311.9 882.87 5.8267-0.64147 0.0498 2.9768-5.8267 0.64147z"
               sodipodi:nodetypes="ccccc"
               style="opacity:0.64602;fill-rule:evenodd;fill:#000000"
               inkscape:connector-curvature="0" />
            <path
               id="rect3021-7-48-8"
               d="m323.44 880.83 3.57-1.3813 0.0498 2.9768-3.57 1.3813z"
               sodipodi:nodetypes="ccccc"
               style="opacity:0.64602;fill-rule:evenodd;fill:#000000"
               inkscape:connector-curvature="0" />
          </g>
          <g
             id="g3136-5"
             style="fill:#000000">
            <path
               id="rect3021-8-7"
               d="m240.44 855.7 4.9758 0.5793-0.0242 2.3849-4.9758-0.5793z"
               sodipodi:nodetypes="ccccc"
               style="opacity:0.64602;fill-rule:evenodd;fill:#000000"
               inkscape:connector-curvature="0" />
            <path
               id="rect3023-2-6"
               d="m231.39 854.12 4.0616 1.04-0.037 2.3251-4.0616-1.04z"
               sodipodi:nodetypes="ccccc"
               style="opacity:0.64602;fill-rule:evenodd;fill:#000000"
               inkscape:connector-curvature="0" />
            <path
               id="rect3025-4-1"
               d="m225.42 850.49 1.9464 1.5389v2.3019l-1.9464-1.5389z"
               sodipodi:nodetypes="ccccc"
               style="opacity:0.64602;fill-rule:evenodd;fill:#000000"
               inkscape:connector-curvature="0" />
            <path
               id="rect3021-1-5-8"
               d="m257.39 856.76 6.2336 0.13539 0.0128 2.7918-6.2336-0.13539z"
               sodipodi:nodetypes="ccccc"
               style="opacity:0.64602;fill-rule:evenodd;fill:#000000"
               inkscape:connector-curvature="0" />
            <path
               id="rect3021-7-5-9"
               d="m271.52 856.99 6.6775 0.0984 0.0498 2.9768-6.6775-0.0984z"
               sodipodi:nodetypes="ccccc"
               style="opacity:0.64602;fill-rule:evenodd;fill:#000000"
               inkscape:connector-curvature="0" />
            <path
               id="rect3021-7-4-1-2"
               d="m285.39 856.63 6.5665 0.0244 0.0868 3.3097-6.6405 0.12356z"
               sodipodi:nodetypes="ccccc"
               style="opacity:0.64602;fill-rule:evenodd;fill:#000000"
               inkscape:connector-curvature="0" />
            <path
               id="rect3021-7-0-7-7"
               d="m297.97 856.38 6.6775-0.0866 0.0128 3.1248-6.6405 0.30853z"
               sodipodi:nodetypes="ccccc"
               style="opacity:0.64602;fill-rule:evenodd;fill:#000000"
               inkscape:connector-curvature="0" />
            <path
               id="rect3021-7-9-1-9"
               d="m312.25 855.86 5.8267-0.64147 0.0498 2.9768-5.8267 0.64147z"
               sodipodi:nodetypes="ccccc"
               style="opacity:0.64602;fill-rule:evenodd;fill:#000000"
               inkscape:connector-curvature="0" />
            <path
               id="rect3021-7-48-1-5"
               d="m323.79 853.82 3.57-1.3813 0.0498 2.9768-3.57 1.3813z"
               sodipodi:nodetypes="ccccc"
               style="opacity:0.64602;fill-rule:evenodd;fill:#000000"
               inkscape:connector-curvature="0" />
          </g>
        </g>
      </g>
      <g
         id="g5616"
         transform="translate(-961.24 9.4703)">
        <g
           id="g5197"
           transform="translate(-719.88 40.179)">
          <g
             id="g4719"
             transform="translate(-215.96 494.71)">
            <g
               id="g4078-2"
               style="fill:#ff7f2a"
               transform="matrix(1.6821 -.073103 0 .72221 19.959 -133.03)">
              <path
                 id="rect4030-7"
                 sodipodi:nodetypes="ccccc"
                 style="fill-rule:evenodd;fill:#ff7f2a"
                 inkscape:connector-curvature="0"
                 d="m380.59-94.112 183.49 1.1838v30.187l-183.49-1.1838z" />
              <path
                 id="rect4033-7"
                 sodipodi:nodetypes="ccccc"
                 style="fill-rule:evenodd;fill:#ff7f2a"
                 inkscape:connector-curvature="0"
                 d="m380.55-84.678h183.52v9.5073h-183.52z" />
              <path
                 id="rect4033-4-9"
                 sodipodi:nodetypes="ccccc"
                 style="fill-rule:evenodd;fill:#ff7f2a"
                 inkscape:connector-curvature="0"
                 d="m380.59-94.112h183.49v9.4703h-183.49z" />
            </g>
            <g
               id="g4078-2-0"
               transform="matrix(1.6821 -.073103 0 .72221 19.663 -133.32)">
              <path
                 id="rect4030-7-8"
                 sodipodi:nodetypes="ccccc"
                 style="fill-rule:evenodd;fill:url(#linearGradient4729)"
                 inkscape:connector-curvature="0"
                 d="m380.59-94.112 183.49 1.1838v30.187l-183.49-1.1838z" />
              <path
                 id="rect4033-7-8"
                 sodipodi:nodetypes="ccccc"
                 style="fill-rule:evenodd;fill:url(#linearGradient4731)"
                 inkscape:connector-curvature="0"
                 d="m380.55-84.678h183.52v9.5073h-183.52z" />
              <path
                 id="rect4033-4-9-0"
                 sodipodi:nodetypes="ccccc"
                 style="fill-rule:evenodd;fill:url(#linearGradient4733)"
                 inkscape:connector-curvature="0"
                 d="m380.59-94.112h183.49v9.4703h-183.49z" />
            </g>
          </g>
          <g
             id="g4911"
             transform="translate(-364.96 204.24)">
            <g
               id="g4735"
               style="fill:#ff7f2a">
              <g
                 id="g4078-6-12"
                 style="fill:#ff7f2a"
                 transform="matrix(-.023459 -3.4217 .72214 -.10252 1186.6 1909.1)">
                <path
                   id="rect4030-5-0"
                   d="m380.59-94.112 183.49 1.1838v30.187l-183.49-1.1838z"
                   sodipodi:nodetypes="ccccc"
                   style="fill-rule:evenodd;fill:#ff7f2a"
                   inkscape:connector-curvature="0" />
                <path
                   id="rect4033-0-0"
                   d="m380.55-84.678h183.52v9.5073h-183.52z"
                   sodipodi:nodetypes="ccccc"
                   style="fill-rule:evenodd;fill:#ff7f2a"
                   inkscape:connector-curvature="0" />
                <path
                   id="rect4033-4-90-1"
                   d="m380.59-94.112h183.49v9.4703h-183.49z"
                   sodipodi:nodetypes="ccccc"
                   style="fill-rule:evenodd;fill:#ff7f2a"
                   inkscape:connector-curvature="0" />
              </g>
              <g
                 id="g4078-6-12-9"
                 style="fill:#ff7f2a"
                 transform="matrix(-.023459 -3.4217 .72214 -.10252 1228.6 1907.4)">
                <path
                   id="rect4030-5-0-9"
                   d="m380.59-94.112 183.49 1.1838v30.187l-183.49-1.1838z"
                   sodipodi:nodetypes="ccccc"
                   style="fill-rule:evenodd;fill:#ff7f2a"
                   inkscape:connector-curvature="0" />
                <path
                   id="rect4033-0-0-8"
                   d="m380.55-84.678h183.52v9.5073h-183.52z"
                   sodipodi:nodetypes="ccccc"
                   style="fill-rule:evenodd;fill:#ff7f2a"
                   inkscape:connector-curvature="0" />
                <path
                   id="rect4033-4-90-1-1"
                   d="m380.59-94.112h183.49v9.4703h-183.49z"
                   sodipodi:nodetypes="ccccc"
                   style="fill-rule:evenodd;fill:#ff7f2a"
                   inkscape:connector-curvature="0" />
              </g>
              <g
                 id="g4078-6-12-4"
                 style="fill:#ff7f2a"
                 transform="matrix(-.023459 -3.4217 .72214 -.10252 1269.5 1906.8)">
                <path
                   id="rect4030-5-0-7"
                   d="m380.59-94.112 183.49 1.1838v30.187l-183.49-1.1838z"
                   sodipodi:nodetypes="ccccc"
                   style="fill-rule:evenodd;fill:#ff7f2a"
                   inkscape:connector-curvature="0" />
                <path
                   id="rect4033-0-0-83"
                   d="m380.55-84.678h183.52v9.5073h-183.52z"
                   sodipodi:nodetypes="ccccc"
                   style="fill-rule:evenodd;fill:#ff7f2a"
                   inkscape:connector-curvature="0" />
                <path
                   id="rect4033-4-90-1-5"
                   d="m380.59-94.112h183.49v9.4703h-183.49z"
                   sodipodi:nodetypes="ccccc"
                   style="fill-rule:evenodd;fill:#ff7f2a"
                   inkscape:connector-curvature="0" />
              </g>
            </g>
            <g
               id="g4735-1"
               transform="translate(.29806 -.10618)">
              <g
                 id="g4078-6-12-97"
                 transform="matrix(-.023459 -3.4217 .72214 -.10252 1186.6 1909.1)">
                <path
                   id="rect4030-5-0-6"
                   d="m380.59-94.112 183.49 1.1838v30.187l-183.49-1.1838z"
                   sodipodi:nodetypes="ccccc"
                   style="fill:url(#linearGradient4729);fill-rule:evenodd"
                   inkscape:connector-curvature="0" />
                <path
                   id="rect4033-0-0-2"
                   d="m380.55-84.678h183.52v9.5073h-183.52z"
                   sodipodi:nodetypes="ccccc"
                   style="fill:url(#linearGradient4731);fill-rule:evenodd"
                   inkscape:connector-curvature="0" />
                <path
                   id="rect4033-4-90-1-9"
                   d="m380.59-94.112h183.49v9.4703h-183.49z"
                   sodipodi:nodetypes="ccccc"
                   style="fill:url(#linearGradient4733);fill-rule:evenodd"
                   inkscape:connector-curvature="0" />
              </g>
              <g
                 id="g4078-6-12-9-5"
                 transform="matrix(-.023459 -3.4217 .72214 -.10252 1228.6 1907.4)">
                <path
                   id="rect4030-5-0-9-2"
                   d="m380.59-94.112 183.49 1.1838v30.187l-183.49-1.1838z"
                   sodipodi:nodetypes="ccccc"
                   style="fill:url(#linearGradient4729);fill-rule:evenodd"
                   inkscape:connector-curvature="0" />
                <path
                   id="rect4033-0-0-8-0"
                   d="m380.55-84.678h183.52v9.5073h-183.52z"
                   sodipodi:nodetypes="ccccc"
                   style="fill:url(#linearGradient4731);fill-rule:evenodd"
                   inkscape:connector-curvature="0" />
                <path
                   id="rect4033-4-90-1-1-0"
                   d="m380.59-94.112h183.49v9.4703h-183.49z"
                   sodipodi:nodetypes="ccccc"
                   style="fill:url(#linearGradient4733);fill-rule:evenodd"
                   inkscape:connector-curvature="0" />
              </g>
              <g
                 id="g4078-6-12-4-3"
                 transform="matrix(-.023459 -3.4217 .72214 -.10252 1269.5 1906.8)">
                <path
                   id="rect4030-5-0-7-9"
                   d="m380.59-94.112 183.49 1.1838v30.187l-183.49-1.1838z"
                   sodipodi:nodetypes="ccccc"
                   style="fill:url(#linearGradient4729);fill-rule:evenodd"
                   inkscape:connector-curvature="0" />
                <path
                   id="rect4033-0-0-83-1"
                   d="m380.55-84.678h183.52v9.5073h-183.52z"
                   sodipodi:nodetypes="ccccc"
                   style="fill:url(#linearGradient4731);fill-rule:evenodd"
                   inkscape:connector-curvature="0" />
                <path
                   id="rect4033-4-90-1-5-8"
                   d="m380.59-94.112h183.49v9.4703h-183.49z"
                   sodipodi:nodetypes="ccccc"
                   style="fill:url(#linearGradient4733);fill-rule:evenodd"
                   inkscape:connector-curvature="0" />
              </g>
            </g>
          </g>
          <g
             id="g5151"
             transform="translate(-28.411 517.32)">
            <g
               id="g4957"
               style="fill:#ff7f2a"
               transform="translate(26.786 -520.66)">
              <g
                 id="g4078-6"
                 style="fill:#ff7f2a"
                 transform="matrix(-.068390 -3.4217 .72080 -.10252 446.77 2130.4)">
                <path
                   id="rect4030-5"
                   d="m380.59-94.112 183.49 1.1838v30.187l-183.49-1.1838z"
                   sodipodi:nodetypes="ccccc"
                   style="fill-rule:evenodd;fill:#ff7f2a"
                   inkscape:connector-curvature="0" />
                <path
                   id="rect4033-0"
                   d="m380.55-84.678h183.52v9.5073h-183.52z"
                   sodipodi:nodetypes="ccccc"
                   style="fill-rule:evenodd;fill:#ff7f2a"
                   inkscape:connector-curvature="0" />
                <path
                   id="rect4033-4-90"
                   d="m380.59-94.112h183.49v9.4703h-183.49z"
                   sodipodi:nodetypes="ccccc"
                   style="fill-rule:evenodd;fill:#ff7f2a"
                   inkscape:connector-curvature="0" />
              </g>
              <g
                 id="g4078-6-6"
                 style="fill:#ff7f2a"
                 transform="matrix(-.068390 -3.4217 .72080 -.10252 534.36 2126.1)">
                <path
                   id="rect4030-5-1"
                   d="m380.59-94.112 183.49 1.1838v30.187l-183.49-1.1838z"
                   sodipodi:nodetypes="ccccc"
                   style="fill-rule:evenodd;fill:#ff7f2a"
                   inkscape:connector-curvature="0" />
                <path
                   id="rect4033-0-8"
                   d="m380.55-84.678h183.52v9.5073h-183.52z"
                   sodipodi:nodetypes="ccccc"
                   style="fill-rule:evenodd;fill:#ff7f2a"
                   inkscape:connector-curvature="0" />
                <path
                   id="rect4033-4-90-4"
                   d="m380.59-94.112h183.49v9.4703h-183.49z"
                   sodipodi:nodetypes="ccccc"
                   style="fill-rule:evenodd;fill:#ff7f2a"
                   inkscape:connector-curvature="0" />
              </g>
              <g
                 id="g4078-6-1"
                 style="fill:#ff7f2a"
                 transform="matrix(-.068390 -3.4217 .72080 -.10252 489.97 2127.8)">
                <path
                   id="rect4030-5-5"
                   d="m380.59-94.112 183.49 1.1838v30.187l-183.49-1.1838z"
                   sodipodi:nodetypes="ccccc"
                   style="fill-rule:evenodd;fill:#ff7f2a"
                   inkscape:connector-curvature="0" />
                <path
                   id="rect4033-0-4"
                   d="m380.55-84.678h183.52v9.5073h-183.52z"
                   sodipodi:nodetypes="ccccc"
                   style="fill-rule:evenodd;fill:#ff7f2a"
                   inkscape:connector-curvature="0" />
                <path
                   id="rect4033-4-90-2"
                   d="m380.59-94.112h183.49v9.4703h-183.49z"
                   sodipodi:nodetypes="ccccc"
                   style="fill-rule:evenodd;fill:#ff7f2a"
                   inkscape:connector-curvature="0" />
              </g>
            </g>
            <g
               id="g4957-9"
               transform="translate(26.68 -520.64)">
              <g
                 id="g4078-6-7"
                 transform="matrix(-.068390 -3.4217 .72080 -.10252 446.77 2130.4)">
                <path
                   id="rect4030-5-6"
                   d="m380.59-94.112 183.49 1.1838v30.187l-183.49-1.1838z"
                   sodipodi:nodetypes="ccccc"
                   style="fill:url(#linearGradient4729);fill-rule:evenodd"
                   inkscape:connector-curvature="0" />
                <path
                   id="rect4033-0-9"
                   d="m380.55-84.678h183.52v9.5073h-183.52z"
                   sodipodi:nodetypes="ccccc"
                   style="fill:url(#linearGradient4731);fill-rule:evenodd"
                   inkscape:connector-curvature="0" />
                <path
                   id="rect4033-4-90-3"
                   d="m380.59-94.112h183.49v9.4703h-183.49z"
                   sodipodi:nodetypes="ccccc"
                   style="fill:url(#linearGradient4733);fill-rule:evenodd"
                   inkscape:connector-curvature="0" />
              </g>
              <g
                 id="g4078-6-6-5"
                 transform="matrix(-.068390 -3.4217 .72080 -.10252 534.36 2126.1)">
                <path
                   id="rect4030-5-1-7"
                   d="m380.59-94.112 183.49 1.1838v30.187l-183.49-1.1838z"
                   sodipodi:nodetypes="ccccc"
                   style="fill:url(#linearGradient4729);fill-rule:evenodd"
                   inkscape:connector-curvature="0" />
                <path
                   id="rect4033-0-8-6"
                   d="m380.55-84.678h183.52v9.5073h-183.52z"
                   sodipodi:nodetypes="ccccc"
                   style="fill:url(#linearGradient4731);fill-rule:evenodd"
                   inkscape:connector-curvature="0" />
                <path
                   id="rect4033-4-90-4-6"
                   d="m380.59-94.112h183.49v9.4703h-183.49z"
                   sodipodi:nodetypes="ccccc"
                   style="fill:url(#linearGradient4733);fill-rule:evenodd"
                   inkscape:connector-curvature="0" />
              </g>
              <g
                 id="g4078-6-1-5"
                 transform="matrix(-.068390 -3.4217 .72080 -.10252 489.97 2127.8)">
                <path
                   id="rect4030-5-5-8"
                   d="m380.59-94.112 183.49 1.1838v30.187l-183.49-1.1838z"
                   sodipodi:nodetypes="ccccc"
                   style="fill:url(#linearGradient4729);fill-rule:evenodd"
                   inkscape:connector-curvature="0" />
                <path
                   id="rect4033-0-4-2"
                   d="m380.55-84.678h183.52v9.5073h-183.52z"
                   sodipodi:nodetypes="ccccc"
                   style="fill:url(#linearGradient4731);fill-rule:evenodd"
                   inkscape:connector-curvature="0" />
                <path
                   id="rect4033-4-90-2-5"
                   d="m380.59-94.112h183.49v9.4703h-183.49z"
                   sodipodi:nodetypes="ccccc"
                   style="fill:url(#linearGradient4733);fill-rule:evenodd"
                   inkscape:connector-curvature="0" />
              </g>
            </g>
          </g>
        </g>
        <g
           id="g4550"
           transform="matrix(1.0855 0 0 1 -771.8 40.179)">
          <g
             id="g4078-9"
             style="fill:#c87137"
             transform="matrix(2.8819 -.10535 0 .72221 -763.34 295.65)">
            <path
               id="rect4030-8"
               d="m380.59-94.112 183.49 1.1838v30.187l-183.49-1.1838z"
               sodipodi:nodetypes="ccccc"
               style="fill-rule:evenodd;fill:#c87137"
               inkscape:connector-curvature="0" />
            <path
               id="rect4033-8"
               d="m380.55-84.678h183.52v9.5073h-183.52z"
               sodipodi:nodetypes="ccccc"
               style="fill-rule:evenodd;fill:#c87137"
               inkscape:connector-curvature="0" />
            <path
               id="rect4033-4-0"
               d="m380.59-94.112h183.49v9.4703h-183.49z"
               sodipodi:nodetypes="ccccc"
               style="fill-rule:evenodd;fill:#c87137"
               inkscape:connector-curvature="0" />
          </g>
          <g
             id="g4078"
             transform="matrix(2.8819 -.10535 0 .72221 -763.36 295.87)">
            <path
               id="rect4030"
               d="m380.59-94.112 183.49 1.1838v30.187l-183.49-1.1838z"
               sodipodi:nodetypes="ccccc"
               style="fill:url(#linearGradient4729);fill-rule:evenodd"
               inkscape:connector-curvature="0" />
            <path
               id="rect4033"
               d="m380.55-84.678h183.52v9.5073h-183.52z"
               sodipodi:nodetypes="ccccc"
               style="fill:url(#linearGradient4731);fill-rule:evenodd"
               inkscape:connector-curvature="0" />
            <path
               id="rect4033-4"
               d="m380.59-94.112h183.49v9.4703h-183.49z"
               sodipodi:nodetypes="ccccc"
               style="fill:url(#linearGradient4733);fill-rule:evenodd"
               inkscape:connector-curvature="0" />
          </g>
        </g>
      </g>
      <g
         id="g5946"
         transform="translate(-1666.8 52.087)">
        <g
           id="g3806-4"
           transform="matrix(1 0 -.018769 .95730 663.75 -15.098)">
          <g
             id="g3769-4">
            <path
               id="rect2987-4"
               style="fill-rule:evenodd;fill:#ff0000"
               d="m212.14 80.451c41.059 1.1307 40.828 1.0668 85.31-1.2558 3.7664-0.19665 16.555 1718.7 16.328 1725.5-0.39192 11.769-79.8 12.955-79.883 2.0929-0.036-4.7284-26.689-1726.5-21.756-1726.4z"
               sodipodi:nodetypes="sssss"
               inkscape:connector-curvature="0"
               transform="matrix(1 0 .015973 .99987 0 0)" />
            <path
               id="rect3758-2"
               d="m211.31 70.436s29.298 1.6044 43.789 1.4693c15.202-0.14168 45.919-1.6786 45.919-1.6786l0.3139 6.9981s-0.51949 0.05996-1.4572 0.16497c-0.26356 0.02951-0.50467 0.562-0.83206 0.5983-0.30826 0.03418 0.022 1.1987-0.33919 1.2367-8.4352 0.88772-31.451 1.6354-43.71 1.8578-13.602 0.24678-40.808-0.64412-40.808-0.64412l-1.2542-0.91698-1.6221-0.62255z"
               sodipodi:nodetypes="csccsssscccc"
               style="fill:url(#linearGradient3814);fill-rule:evenodd"
               inkscape:connector-curvature="0" />
          </g>
          <g
             id="g3802-9">
            <path
               id="path3773-3"
               d="m298.21 71.135s-18.242 1.3009-39.97 1.3009-44.783-1.9514-44.783-1.9514c0-12.334 12.174-40.301 41.016-40.111 33.028 0.21682 43.737 28.428 43.737 40.762z"
               sodipodi:nodetypes="sssss"
               style="fill:url(#linearGradient3816);fill-rule:evenodd"
               inkscape:connector-curvature="0" />
            <path
               id="path3784-0"
               sodipodi:rx="11.928213"
               sodipodi:ry="11.19578"
               style="opacity:0.64602;filter:url(#filter3798-7);fill-rule:evenodd;fill:#ffffff"
               sodipodi:type="arc"
               d="m200.69 58.938c0 6.1833-5.3404 11.196-11.928 11.196-6.5878 0-11.928-5.0125-11.928-11.196 0-6.1833 5.3404-11.196 11.928-11.196 6.5878 0 11.928 5.0125 11.928 11.196z"
               transform="translate(56.293 -7.3243)"
               sodipodi:cy="58.938095"
               sodipodi:cx="188.75874" />
          </g>
        </g>
        <g
           id="g3926-7"
           transform="matrix(1 0 -.018769 .95730 663.3 -13.25)">
          <path
             id="rect3818-7"
             sodipodi:nodetypes="scssscscsssssss"
             style="fill-rule:evenodd;fill:#483737"
             inkscape:connector-curvature="0"
             d="m228.94 845.77c2.2123-0.9867 6.5761-1.1348 6.5761-1.1348s1.7239 5.086 3.8721 5.4906c21.073 3.9693 29.956 2.9598 43.274 2.7798 12.985-0.17555 22.083-0.68399 32.34-3.8501 1.6367-0.50524 4.2792-4.8537 4.2792-4.8537s3.9475-0.94458 8.3291 1.0413c2.1931 0.99401 3.7123 4.2938 3.7123 4.2938s-0.0936 18.898 0.0867 29.672c0.0306 1.8273-7.1766 4.5162-11.381 5.5998-5.191 1.3378-27.696 2.4868-41.605 2.2878-14.657-0.20979-30.559-0.74133-43.894-2.6758-4.9494-0.71801-10.316-4.665-10.352-5.9082-0.0748-2.5797-0.10682-22.106-0.14161-29.172-0.01-2.0219 3.2611-2.8374 4.904-3.5701z" />
          <g
             id="g3147-8"
             style="fill:#000000">
            <path
               id="rect3021-73"
               d="m240.08 882.71 4.9758 0.5793-0.0242 2.3849-4.9758-0.5793z"
               sodipodi:nodetypes="ccccc"
               style="opacity:0.64602;fill-rule:evenodd;fill:#000000"
               inkscape:connector-curvature="0" />
            <path
               id="rect3023-0"
               d="m231.04 881.12 4.0616 1.04-0.037 2.3251-4.0616-1.04z"
               sodipodi:nodetypes="ccccc"
               style="opacity:0.64602;fill-rule:evenodd;fill:#000000"
               inkscape:connector-curvature="0" />
            <path
               id="rect3025-38"
               d="m225.06 877.5 1.9464 1.5389v2.3019l-1.9464-1.5389z"
               sodipodi:nodetypes="ccccc"
               style="opacity:0.64602;fill-rule:evenodd;fill:#000000"
               inkscape:connector-curvature="0" />
            <path
               id="rect3021-1-2"
               d="m257.03 883.77 6.2336 0.13539 0.0128 2.7918-6.2336-0.13539z"
               sodipodi:nodetypes="ccccc"
               style="opacity:0.64602;fill-rule:evenodd;fill:#000000"
               inkscape:connector-curvature="0" />
            <path
               id="rect3021-7-52"
               d="m271.17 883.99 6.6775 0.0984 0.0498 2.9768-6.6775-0.0984z"
               sodipodi:nodetypes="ccccc"
               style="opacity:0.64602;fill-rule:evenodd;fill:#000000"
               inkscape:connector-curvature="0" />
            <path
               id="rect3021-7-4-0"
               d="m285.04 883.64 6.5665 0.0244 0.0868 3.3097-6.6405 0.12356z"
               sodipodi:nodetypes="ccccc"
               style="opacity:0.64602;fill-rule:evenodd;fill:#000000"
               inkscape:connector-curvature="0" />
            <path
               id="rect3021-7-0-3"
               d="m297.62 883.38 6.6775-0.0866 0.0128 3.1248-6.6405 0.30853z"
               sodipodi:nodetypes="ccccc"
               style="opacity:0.64602;fill-rule:evenodd;fill:#000000"
               inkscape:connector-curvature="0" />
            <path
               id="rect3021-7-9-7"
               d="m311.9 882.87 5.8267-0.64147 0.0498 2.9768-5.8267 0.64147z"
               sodipodi:nodetypes="ccccc"
               style="opacity:0.64602;fill-rule:evenodd;fill:#000000"
               inkscape:connector-curvature="0" />
            <path
               id="rect3021-7-48-2"
               d="m323.44 880.83 3.57-1.3813 0.0498 2.9768-3.57 1.3813z"
               sodipodi:nodetypes="ccccc"
               style="opacity:0.64602;fill-rule:evenodd;fill:#000000"
               inkscape:connector-curvature="0" />
          </g>
          <g
             id="g3136-9"
             style="fill:#000000">
            <path
               id="rect3021-8-75"
               d="m240.44 855.7 4.9758 0.5793-0.0242 2.3849-4.9758-0.5793z"
               sodipodi:nodetypes="ccccc"
               style="opacity:0.64602;fill-rule:evenodd;fill:#000000"
               inkscape:connector-curvature="0" />
            <path
               id="rect3023-2-3"
               d="m231.39 854.12 4.0616 1.04-0.037 2.3251-4.0616-1.04z"
               sodipodi:nodetypes="ccccc"
               style="opacity:0.64602;fill-rule:evenodd;fill:#000000"
               inkscape:connector-curvature="0" />
            <path
               id="rect3025-4-4"
               d="m225.42 850.49 1.9464 1.5389v2.3019l-1.9464-1.5389z"
               sodipodi:nodetypes="ccccc"
               style="opacity:0.64602;fill-rule:evenodd;fill:#000000"
               inkscape:connector-curvature="0" />
            <path
               id="rect3021-1-5-3"
               d="m257.39 856.76 6.2336 0.13539 0.0128 2.7918-6.2336-0.13539z"
               sodipodi:nodetypes="ccccc"
               style="opacity:0.64602;fill-rule:evenodd;fill:#000000"
               inkscape:connector-curvature="0" />
            <path
               id="rect3021-7-5-2"
               d="m271.52 856.99 6.6775 0.0984 0.0498 2.9768-6.6775-0.0984z"
               sodipodi:nodetypes="ccccc"
               style="opacity:0.64602;fill-rule:evenodd;fill:#000000"
               inkscape:connector-curvature="0" />
            <path
               id="rect3021-7-4-1-1"
               d="m285.39 856.63 6.5665 0.0244 0.0868 3.3097-6.6405 0.12356z"
               sodipodi:nodetypes="ccccc"
               style="opacity:0.64602;fill-rule:evenodd;fill:#000000"
               inkscape:connector-curvature="0" />
            <path
               id="rect3021-7-0-7-1"
               d="m297.97 856.38 6.6775-0.0866 0.0128 3.1248-6.6405 0.30853z"
               sodipodi:nodetypes="ccccc"
               style="opacity:0.64602;fill-rule:evenodd;fill:#000000"
               inkscape:connector-curvature="0" />
            <path
               id="rect3021-7-9-1-3"
               d="m312.25 855.86 5.8267-0.64147 0.0498 2.9768-5.8267 0.64147z"
               sodipodi:nodetypes="ccccc"
               style="opacity:0.64602;fill-rule:evenodd;fill:#000000"
               inkscape:connector-curvature="0" />
            <path
               id="rect3021-7-48-1-2"
               d="m323.79 853.82 3.57-1.3813 0.0498 2.9768-3.57 1.3813z"
               sodipodi:nodetypes="ccccc"
               style="opacity:0.64602;fill-rule:evenodd;fill:#000000"
               inkscape:connector-curvature="0" />
          </g>
        </g>
        <g
           id="g3926-5-5"
           transform="matrix(1 0 -.018769 .95730 656.82 -647.94)">
          <path
             id="rect3818-2-3"
             sodipodi:nodetypes="scssscscsssssss"
             style="fill-rule:evenodd;fill:#6c5353"
             inkscape:connector-curvature="0"
             d="m228.94 845.77c2.2123-0.9867 6.5761-1.1348 6.5761-1.1348s1.7239 5.086 3.8721 5.4906c21.073 3.9693 29.956 2.9598 43.274 2.7798 12.985-0.17555 22.083-0.68399 32.34-3.8501 1.6367-0.50524 4.2792-4.8537 4.2792-4.8537s3.9475-0.94458 8.3291 1.0413c2.1931 0.99401 3.7123 4.2938 3.7123 4.2938s-0.0936 18.898 0.0867 29.672c0.0306 1.8273-7.1766 4.5162-11.381 5.5998-5.191 1.3378-27.696 2.4868-41.605 2.2878-14.657-0.20979-30.559-0.74133-43.894-2.6758-4.9494-0.71801-10.316-4.665-10.352-5.9082-0.0748-2.5797-0.10682-22.106-0.14161-29.172-0.01-2.0219 3.2611-2.8374 4.904-3.5701z" />
          <g
             id="g3147-7-5"
             style="fill:#000000">
            <path
               id="rect3021-6-1"
               d="m240.08 882.71 4.9758 0.5793-0.0242 2.3849-4.9758-0.5793z"
               sodipodi:nodetypes="ccccc"
               style="opacity:0.64602;fill-rule:evenodd;fill:#000000"
               inkscape:connector-curvature="0" />
            <path
               id="rect3023-1-2"
               d="m231.04 881.12 4.0616 1.04-0.037 2.3251-4.0616-1.04z"
               sodipodi:nodetypes="ccccc"
               style="opacity:0.64602;fill-rule:evenodd;fill:#000000"
               inkscape:connector-curvature="0" />
            <path
               id="rect3025-42-2"
               d="m225.06 877.5 1.9464 1.5389v2.3019l-1.9464-1.5389z"
               sodipodi:nodetypes="ccccc"
               style="opacity:0.64602;fill-rule:evenodd;fill:#000000"
               inkscape:connector-curvature="0" />
            <path
               id="rect3021-1-3-2"
               d="m257.03 883.77 6.2336 0.13539 0.0128 2.7918-6.2336-0.13539z"
               sodipodi:nodetypes="ccccc"
               style="opacity:0.64602;fill-rule:evenodd;fill:#000000"
               inkscape:connector-curvature="0" />
            <path
               id="rect3021-7-2-6"
               d="m271.17 883.99 6.6775 0.0984 0.0498 2.9768-6.6775-0.0984z"
               sodipodi:nodetypes="ccccc"
               style="opacity:0.64602;fill-rule:evenodd;fill:#000000"
               inkscape:connector-curvature="0" />
            <path
               id="rect3021-7-4-2-4"
               d="m285.04 883.64 6.5665 0.0244 0.0868 3.3097-6.6405 0.12356z"
               sodipodi:nodetypes="ccccc"
               style="opacity:0.64602;fill-rule:evenodd;fill:#000000"
               inkscape:connector-curvature="0" />
            <path
               id="rect3021-7-0-1-0"
               d="m297.62 883.38 6.6775-0.0866 0.0128 3.1248-6.6405 0.30853z"
               sodipodi:nodetypes="ccccc"
               style="opacity:0.64602;fill-rule:evenodd;fill:#000000"
               inkscape:connector-curvature="0" />
            <path
               id="rect3021-7-9-6-7"
               d="m311.9 882.87 5.8267-0.64147 0.0498 2.9768-5.8267 0.64147z"
               sodipodi:nodetypes="ccccc"
               style="opacity:0.64602;fill-rule:evenodd;fill:#000000"
               inkscape:connector-curvature="0" />
            <path
               id="rect3021-7-48-8-0"
               d="m323.44 880.83 3.57-1.3813 0.0498 2.9768-3.57 1.3813z"
               sodipodi:nodetypes="ccccc"
               style="opacity:0.64602;fill-rule:evenodd;fill:#000000"
               inkscape:connector-curvature="0" />
          </g>
          <g
             id="g3136-5-3"
             style="fill:#000000">
            <path
               id="rect3021-8-7-4"
               d="m240.44 855.7 4.9758 0.5793-0.0242 2.3849-4.9758-0.5793z"
               sodipodi:nodetypes="ccccc"
               style="opacity:0.64602;fill-rule:evenodd;fill:#000000"
               inkscape:connector-curvature="0" />
            <path
               id="rect3023-2-6-0"
               d="m231.39 854.12 4.0616 1.04-0.037 2.3251-4.0616-1.04z"
               sodipodi:nodetypes="ccccc"
               style="opacity:0.64602;fill-rule:evenodd;fill:#000000"
               inkscape:connector-curvature="0" />
            <path
               id="rect3025-4-1-0"
               d="m225.42 850.49 1.9464 1.5389v2.3019l-1.9464-1.5389z"
               sodipodi:nodetypes="ccccc"
               style="opacity:0.64602;fill-rule:evenodd;fill:#000000"
               inkscape:connector-curvature="0" />
            <path
               id="rect3021-1-5-8-5"
               d="m257.39 856.76 6.2336 0.13539 0.0128 2.7918-6.2336-0.13539z"
               sodipodi:nodetypes="ccccc"
               style="opacity:0.64602;fill-rule:evenodd;fill:#000000"
               inkscape:connector-curvature="0" />
            <path
               id="rect3021-7-5-9-3"
               d="m271.52 856.99 6.6775 0.0984 0.0498 2.9768-6.6775-0.0984z"
               sodipodi:nodetypes="ccccc"
               style="opacity:0.64602;fill-rule:evenodd;fill:#000000"
               inkscape:connector-curvature="0" />
            <path
               id="rect3021-7-4-1-2-1"
               d="m285.39 856.63 6.5665 0.0244 0.0868 3.3097-6.6405 0.12356z"
               sodipodi:nodetypes="ccccc"
               style="opacity:0.64602;fill-rule:evenodd;fill:#000000"
               inkscape:connector-curvature="0" />
            <path
               id="rect3021-7-0-7-7-0"
               d="m297.97 856.38 6.6775-0.0866 0.0128 3.1248-6.6405 0.30853z"
               sodipodi:nodetypes="ccccc"
               style="opacity:0.64602;fill-rule:evenodd;fill:#000000"
               inkscape:connector-curvature="0" />
            <path
               id="rect3021-7-9-1-9-6"
               d="m312.25 855.86 5.8267-0.64147 0.0498 2.9768-5.8267 0.64147z"
               sodipodi:nodetypes="ccccc"
               style="opacity:0.64602;fill-rule:evenodd;fill:#000000"
               inkscape:connector-curvature="0" />
            <path
               id="rect3021-7-48-1-5-75"
               d="m323.79 853.82 3.57-1.3813 0.0498 2.9768-3.57 1.3813z"
               sodipodi:nodetypes="ccccc"
               style="opacity:0.64602;fill-rule:evenodd;fill:#000000"
               inkscape:connector-curvature="0" />
          </g>
        </g>
      </g>
      <g
         id="g6992"
         transform="matrix(1.2842 0 -.027254 .22007 1716.2 2204)">
        <g
           id="g4078-6-6-9"
           style="fill:#ff7f2a"
           transform="matrix(-.068390 -3.4217 .72080 -.10252 -1279.7 1261.5)">
          <path
             id="rect4030-5-1-2"
             sodipodi:nodetypes="ccccc"
             style="fill-rule:evenodd;fill:#ff7f2a"
             inkscape:connector-curvature="0"
             d="m380.59-94.112 183.49 1.1838v30.187l-183.49-1.1838z" />
          <path
             id="rect4033-0-8-3"
             sodipodi:nodetypes="ccccc"
             style="fill-rule:evenodd;fill:#ff7f2a"
             inkscape:connector-curvature="0"
             d="m380.55-84.678h183.52v9.5073h-183.52z" />
          <path
             id="rect4033-4-90-4-7"
             sodipodi:nodetypes="ccccc"
             style="fill-rule:evenodd;fill:#ff7f2a"
             inkscape:connector-curvature="0"
             d="m380.59-94.112h183.49v9.4703h-183.49z" />
        </g>
        <g
           id="g4078-6-6-5-4"
           transform="matrix(-.068390 -3.4217 .72080 -.10252 -1279.8 1261.5)">
          <path
             id="rect4030-5-1-7-1"
             sodipodi:nodetypes="ccccc"
             style="fill:url(#linearGradient4729);fill-rule:evenodd"
             inkscape:connector-curvature="0"
             d="m380.59-94.112 183.49 1.1838v30.187l-183.49-1.1838z" />
          <path
             id="rect4033-0-8-6-1"
             sodipodi:nodetypes="ccccc"
             style="fill:url(#linearGradient4731);fill-rule:evenodd"
             inkscape:connector-curvature="0"
             d="m380.55-84.678h183.52v9.5073h-183.52z" />
          <path
             id="rect4033-4-90-4-6-5"
             sodipodi:nodetypes="ccccc"
             style="fill:url(#linearGradient4733);fill-rule:evenodd"
             inkscape:connector-curvature="0"
             d="m380.59-94.112h183.49v9.4703h-183.49z" />
        </g>
      </g>
      <g
         id="g7008"
         transform="matrix(1.2488 0 -.033129 .25456 1552.2 2242.7)">
        <g
           id="g4078-6-1-3"
           style="fill:#ff7f2a"
           transform="matrix(-.068390 -3.4217 .72080 -.10252 -1324 1263.2)">
          <path
             id="rect4030-5-5-1"
             sodipodi:nodetypes="ccccc"
             style="fill-rule:evenodd;fill:#ff7f2a"
             inkscape:connector-curvature="0"
             d="m380.59-94.112 183.49 1.1838v30.187l-183.49-1.1838z" />
          <path
             id="rect4033-0-4-5"
             sodipodi:nodetypes="ccccc"
             style="fill-rule:evenodd;fill:#ff7f2a"
             inkscape:connector-curvature="0"
             d="m380.55-84.678h183.52v9.5073h-183.52z" />
          <path
             id="rect4033-4-90-2-7"
             sodipodi:nodetypes="ccccc"
             style="fill-rule:evenodd;fill:#ff7f2a"
             inkscape:connector-curvature="0"
             d="m380.59-94.112h183.49v9.4703h-183.49z" />
        </g>
        <path
           id="rect4030-5-5-8-5"
           d="m-1418-29.366-11.695-627.97 21.758-3.0948 11.695 627.97z"
           sodipodi:nodetypes="ccccc"
           style="fill-rule:evenodd;fill:url(#linearGradient7017)"
           inkscape:connector-curvature="0" />
        <path
           id="rect4033-0-4-2-1"
           d="m-1411.2-30.207-12.551-627.97 6.8529-0.97472 12.551 627.97z"
           sodipodi:nodetypes="ccccc"
           style="fill-rule:evenodd;fill:url(#linearGradient7019)"
           inkscape:connector-curvature="0" />
        <path
           id="rect4033-4-90-2-5-0"
           d="m-1418-29.366-12.549-627.85 6.8262-0.97093 12.549 627.85z"
           sodipodi:nodetypes="ccccc"
           style="fill-rule:evenodd;fill:url(#linearGradient7021)"
           inkscape:connector-curvature="0" />
      </g>
      <path
         id="rect7023"
         sodipodi:nodetypes="ccccccccccccccccccccccccccccccccccccccccccccccccccccccccccccccccccccccccccccccc"
         style="fill-rule:evenodd;fill:#2b0000"
         inkscape:connector-curvature="0"
         d="m-1057.2 1126.5-54.966-118.9-30.228-53.351-12.621-14.542-16.665-14.414-11.977-7.0689-23.236-4.2596-14.956-18.096-3.2856-18.28-6.67-2.9353-0.7939-5.4942 2.8354-2.7213 7.6464 2.086-0.4963-71.515-4.2796-0.93187-0.3719-30.182 3.426-5.3986 5.0138-4.9031 8.1594-2.1339 12.512 0.57057 11.168 2.9846 12.247 3.8298 13.457 6.5691 18.888 11.524 14.289 11.821 10.297 9.6648 9.9962 9.3788 11.757 13.448 13.484 18.092 9.2505 15.065 147.99-16.537 7.0318-74.853 1.2126-22.504 8.9236-10.379 13.862-0.83736 19.629 3.8491 47.494 24.127 49.49 48.121 34.237 52.118 31.229 62.368 30.016 62.924 73.906 115.24 41.096 49.359 76.328 74.008 50.953 58.911 55.349 74.596 47.664 76.52 33.233 62.385 29.423 59.782 34.643 65.985 49.005 70.203 59.746 59.938 51.146 34.347 130.18 52.538 80.855 33.67 32.532 38.33 21.02 58.497 3.6518 40.602-4.8813 41.014-14.747 23.978-24.375 15.134-302.8 54.144-11.281-1.5343-130.9-73.17-57.622-25.482-55.157-26.21-49.637-31.758-49.597-41.89-46.388-50.94-41.844-57.32-33.869-53.622-23.005-43.082-49.611-107.22-51.444-98.429-85.584-120.8-103.84-113.67-35.447-49.084-45.138-69.577z" />
      <path
         id="rect7046"
         sodipodi:nodetypes="ccccccccccccccscccccccccccccccccccccccccccccccccccccccccccccccccccccccccccccc"
         style="fill-rule:evenodd;fill:#008000"
         inkscape:connector-curvature="0"
         d="m-1217.3 899.36-6.0262-139.87 11.033-9.7637 23.35-0.72938 32.058 13.787 35.432 24.248 40.471 46.304 10.419 17.613 31.58-2.3792 41.116-4.2688 71.907-8.43 5.3428-5.6326 4.1319-55.057 2.823-36.882s3.2723-6.4638 6.0998-8.5096c2.5395-1.8375 8.9728-2.8137 8.9728-2.8137l13.61 0.11108 14.899 3.3163 19.386 8.0218 34.978 21.625 45.565 45.489 39.052 61.147 23.259 53.375 23.624 46.93 32.702 61.928 49.719 71.016 48.898 56.138 57.553 51.301 73.357 84.544 110.23 172.57 58.443 119.12 37.101 66.838 41.192 48.342 44.73 46.607 53.265 36.992 146.14 57.372 55.44 21.504 24.833 18.516 15.271 20.935 17.478 38.838 9.2639 41.422 0.3325 36.612-3.4833 27.788-10.242 17.887-13.642 14.619-20.76 6.779-256.04 48.581-45.278 6.697-31.619-13.672-11.638-19.48-10.973-3.8993-109.58-48.718-97.679-46.267-44.74-29.57-24.34-21.604-24.996-21.148-40.727-46.507-62.815-85.205-51.409-98.207-33.702-76.465-66.588-121.26-37.005-55.864-59.909-72.42-40.027-40.35-44.333-51.785-24.489-33.366-23.848-33.96-20.195-33.351-18.18-31.046-13.718-28.256-27.944-54.888-33.022-75.784-23.435-41.856-21.69-23.513-18.794-17.216-22.353-4.4468z" />
      <path
         id="rect7049"
         sodipodi:nodetypes="ccsccsc"
         style="filter:url(#filter7060);fill-rule:evenodd;fill:#ffffff;fill-opacity:0.79365"
         inkscape:connector-curvature="0"
         d="m-861.74 882.16 10.315-2.7564s63.214 124.39 98.064 179.7c36.652 58.168 131.02 157.88 131.02 157.88l-10.924 8.1675s-97.398-100.88-131.83-160.06c-34.356-59.051-96.647-182.94-96.647-182.94z" />
      <path
         id="rect7049-4"
         sodipodi:nodetypes="ccsccsc"
         style="filter:url(#filter7060-4);fill-rule:evenodd;fill:#ffffff;fill-opacity:0.79365"
         inkscape:connector-curvature="0"
         d="m-480.88 1388.4 10.315-2.7564s49.82 111 84.671 166.31c36.652 58.168 107.58 184.67 107.58 184.67l-10.924 8.1675s-73.96-127.66-108.39-186.84c-34.356-59.051-83.254-169.54-83.254-169.54z" />
      <path
         id="rect7093"
         sodipodi:nodetypes="cscsccccssssssssssssssssssssssssssssssssssssssssssssssssssscccsscccsccccscscc"
         style="fill-rule:evenodd;fill:#004100"
         inkscape:connector-curvature="0"
         d="m-909.03 1202.9s59.773 61.077 84.924 91.616c22.608 27.45 58.352 82.35 58.352 82.35s48.951 63.756 69.283 100.96c27.017 49.437 72.765 158.97 72.765 158.97l116.13 167.55 147.96 89.335 118.77 47.795s30.758 24.868 37.759 42.469c22.048 55.433 15.014 62.41 21.748 67.967 24.6 20.304 24.137 20.896 68.552 37.216 3.346 1.2295-5.0628 8.9567 74.863-2.9166 12.574-1.868 137.72-31.051 149.58-33.532 3.7842-0.7914 19.856-3.8877 24.99-14.548 9.5383-19.804 8.9031-59.218 6.6723-75.315-1.1165-8.0572-6.6256-44.676-32.167-68.982-0.6257-0.5955-101-49.091-109.5-53.674-1.7358-0.9363-27.791-6.2364-82.914-30.69-24.057-10.672-71.405-41.874-75.15-45.117-0.7655-0.6629-53.036-50.669-62.252-61.508-1.083-1.2737-26.142-33.344-56.485-87.721-31.726-56.857-68.837-136.23-72.026-142.3-3.8067-7.2503-23.398-50.384-41.989-77.136-38.64-55.604-66.76-95.319-87.35-119.31-15.617-18.2-94.04-88.755-117.29-117.27-35.336-43.336-44.593-52.755-72.727-101.21-0.60489-1.0418-21.283-43.081-33.042-60.151-4.0049-5.8136-39.692-86.566-61.216-120.07-26.776-41.685-44.142-71.34-71.254-96.765-28.472-26.699-80.566-36.887-81.86-44.787-0.49596-3.0282 12.457-11.88 27.666-9.31 21.524 3.6377 47.986 20.08 50.871 21.178 10.312 3.9253 28.902 21.916 42.918 33.705 5.648 4.7504 39.206 50.253 47.163 67.425 3.0189 6.5146 54.824 109.65 64.553 129.77 2.4861 5.1397 43.885 77.112 52.225 88.342 21.236 28.596 69.815 85.213 73.784 89.889 2.2267 2.6234 29.488 22.935 54.409 48.906 22.477 23.424 44.024 50.302 47.193 53.733 2.9751 3.2214 24.143 26.009 46.121 56.059 25.154 34.393 51.37 76.483 52.585 78.534 8.6594 14.619 54.724 95.91 60.933 110.77 17.462 41.778 57.584 112.43 58.412 114.26 4.7575 10.514 45.202 64.256 46.45 66.423 4.8266 8.384 45.359 46.475 46.728 48.285 15.614 20.655 67.525 48.747 73.195 51.172 50.47 21.585 99.387 40.859 107.01 43.52 36.805 12.851 80.549 26.271 98.139 42.332 12.475 11.391 29.245 34.63 38.418 53.433 10.527 21.579 15.439 54.503 15.81 60.165 0.6781 10.343 0.4472 52.972-3.1911 60.832-11.573 25.002-17.656 29.662-33.124 37.313-17.398 8.6052-97.601 17.59-141.24 26.644-20.983 4.3532-140.65 26.023-162.22 29.583-13.316 2.1974-28.246-6.3282-41.141-16.097-15.418-11.68-6.6343-13.302-9.1221-14.435-69.116-31.48-186.83-81.974-204.5-89.397-22.89-9.6175-39.121-28.53-60.44-39.606-66.482-34.54-100.6-114.17-142.01-157.57-31.327-32.835-64.445-119.93-64.445-119.93l-72.93-149.7-45.69-77.269s-34.318-47.227-57.098-73.266c-21.824-24.946-52.525-51.627-76.363-79.632-25.938-30.47-72.265-95.856-72.265-95.856l-48.897-81.398-69.139-147.48s-29.272-55.574-48.052-73.891c-15.781-15.392-57.997-18.949-57.997-18.949l-0.1707-80.114-1.3523-30.298-2.5785-26.762s30.994 9.1829 45.308 18.51c12.57 8.1906 35.342 34.042 35.342 34.042s28.289 26.675 40.597 55.584c42.538 99.914 114.17 230.73 114.17 230.73z" />
    </g>
  </g>
  <metadata
     id="metadata546">
    <rdf:RDF>
      <cc:Work>
        <dc:format>image/svg+xml</dc:format>
        <dc:type
           rdf:resource="http://purl.org/dc/dcmitype/StillImage" />
        <cc:license
           rdf:resource="http://creativecommons.org/licenses/publicdomain/" />
        <dc:publisher>
          <cc:Agent
             rdf:about="http://openclipart.org/">
            <dc:title>Openclipart</dc:title>
          </cc:Agent>
        </dc:publisher>
      </cc:Work>
      <cc:License
         rdf:about="http://creativecommons.org/licenses/publicdomain/">
        <cc:permits
           rdf:resource="http://creativecommons.org/ns#Reproduction" />
        <cc:permits
           rdf:resource="http://creativecommons.org/ns#Distribution" />
        <cc:permits
           rdf:resource="http://creativecommons.org/ns#DerivativeWorks" />
      </cc:License>
    </rdf:RDF>
  </metadata>
</svg>
